monociclo/riscv32i/riscv.vcd
$date
	Tue Oct 28 21:51:43 2025
$end
$version
	Icarus Verilog
$end
$timescale
	1ps
$end
$scope module riscv_tb $end
$var reg 1 ! clk $end
$scope module dut $end
$var wire 1 ! clk $end
$var wire 1 " RUWr $end
$var wire 2 # RUDataWrSrc [1:0] $end
$var wire 32 $ PCplus4 [31:0] $end
$var wire 32 % PC [31:0] $end
$var wire 1 & NextPCSrc $end
$var wire 32 ' NextPC [31:0] $end
$var wire 32 ( Instruction [31:0] $end
$var wire 3 ) ImmSrc [2:0] $end
$var wire 32 * ImmExt [31:0] $end
$var wire 32 + DataRs2 [31:0] $end
$var wire 32 , DataRs1 [31:0] $end
$var wire 32 - DataRd [31:0] $end
$var wire 1 . DMWr $end
$var wire 3 / DMCtrl [2:0] $end
$var wire 5 0 BrOp [4:0] $end
$var wire 32 1 ALU_B [31:0] $end
$var wire 32 2 ALU_A [31:0] $end
$var wire 32 3 ALURes [31:0] $end
$var wire 4 4 ALUOp [3:0] $end
$var wire 1 5 ALUBSrc $end
$var wire 1 6 ALUASrc $end
$var reg 32 7 RUDataWr [31:0] $end
$scope module ALU $end
$var wire 32 8 A [31:0] $end
$var wire 32 9 B [31:0] $end
$var wire 4 : ALUOp [3:0] $end
$var reg 32 ; ALURes [31:0] $end
$upscope $end
$scope module BU $end
$var wire 32 < rs2 [31:0] $end
$var wire 32 = rs1 [31:0] $end
$var wire 5 > BrOp [4:0] $end
$var reg 1 & NextPCSrc $end
$upscope $end
$scope module CU $end
$var wire 3 ? funct3 [2:0] $end
$var wire 7 @ funct7 [6:0] $end
$var wire 7 A opcode [6:0] $end
$var reg 1 6 ALUASrc $end
$var reg 1 5 ALUBSrc $end
$var reg 4 B ALUOp [3:0] $end
$var reg 5 C BrOp [4:0] $end
$var reg 3 D DMCtrl [2:0] $end
$var reg 1 . DMWr $end
$var reg 3 E ImmSrc [2:0] $end
$var reg 2 F RUDataWrSrc [1:0] $end
$var reg 1 " RUWr $end
$upscope $end
$scope module DMEM $end
$var wire 32 G Address [31:0] $end
$var wire 3 H DMCtrl [2:0] $end
$var wire 1 . DMWr $end
$var wire 1 ! clk $end
$var wire 32 I temp_word [31:0] $end
$var wire 8 J word_index [7:0] $end
$var wire 32 K DataWr [31:0] $end
$var reg 32 L DataRd [31:0] $end
$scope begin $unm_blk_30 $end
$var reg 32 M _ivl_0 [31:0] $end
$var reg 32 N value [31:0] $end
$var integer 32 O fd [31:0] $end
$var integer 32 P i [31:0] $end
$upscope $end
$upscope $end
$scope module IMEM $end
$var wire 32 Q Instruction [31:0] $end
$var wire 32 R Address [31:0] $end
$scope begin $unm_blk_5 $end
$var reg 32 S _ivl_0 [31:0] $end
$var reg 32 T value [31:0] $end
$var integer 32 U fd [31:0] $end
$var integer 32 V i [31:0] $end
$upscope $end
$upscope $end
$scope module IMM $end
$var wire 3 W ImmSrc [2:0] $end
$var wire 25 X Instr [24:0] $end
$var wire 32 Y imm_u [31:0] $end
$var wire 32 Z imm_s [31:0] $end
$var wire 32 [ imm_j [31:0] $end
$var wire 32 \ imm_i [31:0] $end
$var wire 32 ] imm_b [31:0] $end
$var wire 32 ^ ImmExt [31:0] $end
$upscope $end
$scope module PCU $end
$var wire 32 _ NextPC [31:0] $end
$var wire 1 ! clk $end
$var reg 32 ` PC [31:0] $end
$upscope $end
$scope module RU $end
$var wire 32 a DataWr [31:0] $end
$var wire 1 " RUWr $end
$var wire 1 ! clk $end
$var wire 5 b rd [4:0] $end
$var wire 5 c rs1 [4:0] $end
$var wire 5 d rs2 [4:0] $end
$var wire 32 e RU_rs2 [31:0] $end
$var wire 32 f RU_rs1 [31:0] $end
$upscope $end
$upscope $end
$upscope $end
$enddefinitions $end
$comment Show the parameter values. $end
$dumpall
$end
#0
$dumpvars
b0 f
b0 e
b0 d
b0 c
b10 b
b10000000000 a
b0 `
b100 _
b10000000000 ^
b10000000010 ]
b10000000000 \
b10000000000 [
b10000000010 Z
b1000000000000000000000000000000 Y
b100000000000000000000010 X
b0 W
b11111 V
b10000000000000000000000000000011 U
b1000000001100111 T
b1 S
b0 R
b1000000000000000000000100010011 Q
b100 P
b10000000000000000000000000000011 O
b10100 N
b1 M
b101 L
b0 K
b0 J
b101 I
b0 H
b10000000000 G
b0 F
b0 E
b0 D
b0 C
b0 B
b10011 A
b100000 @
b0 ?
b0 >
b0 =
b0 <
b10000000000 ;
b0 :
b10000000000 9
b0 8
b10000000000 7
06
15
b0 4
b10000000000 3
b0 2
b10000000000 1
b0 0
b0 /
0.
b101 -
b0 ,
b0 +
b10000000000 *
b0 )
b1000000000000000000000100010011 (
b100 '
0&
b0 %
b100 $
b0 #
1"
0!
$end
#5000
b1111 -
b1111 L
b1111 I
b10 J
b1000 7
b1000 a
b1000 3
b1000 ;
b1000 G
b1000 1
b1000 9
b1000 *
b1000 ^
bx +
bx <
bx K
bx e
b1000 \
b1010 Z
b1010 ]
b100000000000000000000000 Y
b1000 [
15
1"
b1010 b
b1000 d
b10000000000001010 X
b0 @
b100000000000010100010011 (
b100000000000010100010011 Q
b1000 '
b1000 _
b1000 $
b100 %
b100 R
b100 `
1!
#10000
0!
#15000
bx -
bx L
bx I
b110 J
b10000 1
b10000 9
b11000 3
b11000 ;
b11000 G
1&
b10000 *
b10000 ^
b1000 2
b1000 8
b1100 7
b1100 a
b10000 \
b1 Z
b100000000000 ]
b1000000000000000000000000 Y
b10000 [
b10000 0
b10000 >
b10000 C
b110 )
b110 E
b110 W
16
b10 #
b10 F
15
1"
b1 b
b10000 d
b100000000000000001 X
b1101111 A
b1000000000000000011101111 (
b1000000000000000011101111 Q
b11000 '
b11000 _
b1100 $
b1000 %
b1000 R
b1000 `
1!
#20000
0!
#25000
b1010 -
b1010 L
b1010 I
b100 1
b100 9
b100 *
b100 ^
0&
b1 J
b1100 +
b1100 <
b1100 K
b1100 e
b10000000000 ,
b10000000000 =
b10000000000 f
b1 \
b100 Z
b100 ]
b100010010000000000000 Y
b10010100000000000 [
b10 /
b10 D
b10 H
1.
b0 0
b0 >
b0 C
b1 )
b1 E
b1 W
15
06
b0 #
b0 F
0"
b11100 '
b11100 _
b100 b
b1 d
b10 c
b10001001000100 X
b10 ?
b100011 A
b10000000100 3
b10000000100 ;
b10000000100 G
b100010010001000100011 (
b100010010001000100011 Q
b10000000100 7
b10000000100 a
b10000000000 2
b10000000000 8
b11100 $
b11000 %
b11000 R
b11000 `
1!
#30000
0!
#35000
b0 J
b10000000000 7
b10000000000 a
b10000000000 3
b10000000000 ;
b10000000000 G
b0 1
b0 9
b0 *
b0 ^
bx +
bx <
bx K
bx e
b1000 \
b0 Z
b0 ]
b100000010010000000000000 Y
b10010000000001000 [
b0 b
b1000 d
b10000001001000000 X
b101 -
b101 L
b100000010010000000100011 (
b100000010010000000100011 Q
b100000 '
b100000 _
b101 I
b100000 $
b11100 %
b11100 R
b11100 `
1!
#40000
0!
#45000
b10 J
b1000 7
b1000 a
b1000 3
b1000 ;
b1000 G
b1000 2
b1000 8
b0 +
b0 <
b0 K
b0 e
b1000 ,
b1000 =
b1000 f
b0 \
b1000 Z
b1000 ]
b1010000000000000000 Y
b1010000000000000000 [
1"
b0 )
b0 E
b0 W
15
b0 /
b0 D
b0 H
0.
b1000 b
b0 d
b1010 c
b101000001000 X
b0 ?
b10011 A
b1010000010000010011 (
b1010000010000010011 Q
b100100 '
b100100 _
b1111 -
b1111 L
b100100 $
b100000 %
b100000 R
b100000 `
b1111 I
1!
#50000
0!
#55000
bx I
b0 J
bx -
bx L
b1 7
b1 a
b1 3
b1 ;
b1 G
b1 1
b1 9
b0 2
b0 8
b1 *
b1 ^
b1100 +
b1100 <
b1100 K
b1100 e
b0 ,
b0 =
b0 f
b1 \
b101 Z
b100000000100 ]
b100000000000000000000 Y
b100000000000 [
b101 b
b1 d
b0 c
b10000000000101 X
b100000000001010010011 (
b100000000001010010011 Q
b101000 '
b101000 _
b101000 $
b100100 %
b100100 R
b100100 `
1!
#60000
0!
#65000
b110 Z
b110 ]
b110 b
b10000000000110 X
b100000000001100010011 (
b100000000001100010011 Q
b101100 '
b101100 _
b101100 $
b101000 %
b101000 R
b101000 `
1!
#70000
0!
#75000
b10010 J
b1001000 7
b1001000 a
b11100 1
b11100 9
b1001000 3
b1001000 ;
b1001000 G
b11100 *
b11100 ^
b101100 2
b101100 8
b1000 +
b1000 <
b1000 K
b1000 e
b1 ,
b1 =
b1 f
b1000 \
b11100 Z
b11100 ]
b100000110101000000000000 Y
b110101000000001000 [
b1101 0
b1101 >
b1101 C
b101 )
b101 E
b101 W
16
15
0"
b11100 b
b1000 d
b110 c
b10000011010111100 X
b101 ?
b1100011 A
b100000110101111001100011 (
b100000110101111001100011 Q
b110000 '
b110000 _
b110000 $
b101100 %
b101100 R
b101100 `
1!
#80000
0!
#85000
b0 1
b0 9
b0 *
b0 ^
b0 J
b0 +
b0 <
b0 K
b0 e
b0 \
b1010 Z
b1010 ]
b101000000000000000 Y
b101000000000000000 [
1"
b0 0
b0 >
b0 C
b0 )
b0 E
b0 W
15
06
b1 7
b1 a
b1010 b
b0 d
b101 c
b10100001010 X
b0 ?
b10011 A
b1 3
b1 ;
b1 G
b101000010100010011 (
b101000010100010011 Q
b110100 '
b110100 _
b1 2
b1 8
b110100 $
b110000 %
b110000 R
b110000 `
1!
#90000
0!
#95000
b1111 -
b1111 L
b1111 I
b10 J
b1000 7
b1000 a
b1000 3
b1000 ;
b1000 G
b1000 2
b1000 8
b1000 ,
b1000 =
b1000 f
b1011 Z
b100000001010 ]
b1000000000000000000 Y
b1000000000000000000 [
b1011 b
b1000 c
b100000001011 X
b1000000010110010011 (
b1000000010110010011 Q
b111000 '
b111000 _
b111000 $
b110100 %
b110100 R
b110100 `
1!
#100000
0!
#105000
b100100 1
b100100 9
b100100 *
b100100 ^
bx -
bx L
bx I
b10111 J
b1011100 3
b1011100 ;
b1011100 G
1&
b111000 2
b111000 8
b111100 7
b111100 a
bx +
bx <
bx K
bx e
b0 ,
b0 =
b0 f
b100100 \
b100001 Z
b100000100000 ]
b10010000000000000000000000 Y
b100100 [
b10000 0
b10000 >
b10000 C
b110 )
b110 E
b110 W
16
b10 #
b10 F
15
1"
b1 b
b100 d
b0 c
b1001000000000000001 X
b1 @
b1101111 A
b10010000000000000011101111 (
b10010000000000000011101111 Q
b1011100 '
b1011100 _
b111100 $
b111000 %
b111000 R
b111000 `
1!
#110000
0!
#115000
b0 1
b0 9
0&
b0 *
b0 ^
b0 J
b0 +
b0 <
b0 K
b0 e
b0 \
b101 Z
b100000000100 ]
b0 Y
b0 [
b0 0
b0 >
b0 C
b0 )
b0 E
b0 W
15
06
b0 #
b0 F
1"
b1100000 '
b1100000 _
b101 b
b0 d
b101 X
b0 @
b10011 A
b0 3
b0 ;
b0 G
b1010010011 (
b1010010011 Q
b0 7
b0 a
b0 2
b0 8
b1100000 $
b1011100 %
b1011100 R
b1011100 `
1!
#120000
0!
#125000
b1111 -
b1111 L
b1111 I
b10 J
b1000 7
b1000 a
b1000 3
b1000 ;
b1000 G
b1000 2
b1000 8
b1000 ,
b1000 =
b1000 f
b110 Z
b110 ]
b1011000000000000000 Y
b1011000000000000000 [
b110 b
b1011 c
b101100000110 X
b1011000001100010011 (
b1011000001100010011 Q
b1100100 '
b1100100 _
b1100100 $
b1100000 %
b1100000 R
b1100000 `
1!
#130000
0!
#135000
bx -
bx L
b10000 1
b10000 9
bx I
b11101 J
b10000 *
b10000 ^
b1110100 7
b1110100 a
b1110100 3
b1110100 ;
b1110100 G
b1100100 2
b1100100 8
b10000 Z
b10000 ]
b110000000000000000 Y
b110000000000000000 [
b1000 0
b1000 >
b1000 C
b101 )
b101 E
b101 W
16
15
0"
b10000 b
b110 c
b11000010000 X
b1100011 A
b110000100001100011 (
b110000100001100011 Q
b1101000 '
b1101000 _
b1101000 $
b1100100 %
b1100100 R
b1100100 `
1!
#140000
0!
#145000
b1010 *
b1010 ^
b1 1
b1 9
b0 J
b1 +
b1 <
b1 K
b1 e
b0 ,
b0 =
b0 f
b1010 \
b101 Z
b100000000100 ]
b101000101000000000000000 Y
b101000000000001010 [
1"
b0 0
b0 >
b0 C
b0 )
b0 E
b0 W
05
06
b1 7
b1 a
b101 b
b1010 d
b101 c
b10100010100000101 X
b110011 A
b1 3
b1 ;
b1 G
b101000101000001010110011 (
b101000101000001010110011 Q
b1101100 '
b1101100 _
b0 2
b0 8
b1101100 $
b1101000 %
b1101000 R
b1101000 `
1!
#150000
0!
#155000
b0 -
b0 L
b1100 I
b1 J
b111 7
b111 a
b11111111111111111111111111111111 *
b11111111111111111111111111111111 ^
b11111111111111111111111111111111 1
b11111111111111111111111111111111 9
b111 3
b111 ;
b111 G
bx +
bx <
bx K
bx e
b11111111111111111111111111111111 \
b1111111111111111111111111100110 Z
b11111111111111111111011111100110 ]
b11111111111100110000000000000000 Y
b11111111111100110000111111111110 [
15
1"
b1000 2
b1000 8
b110 b
b11111 d
b110 c
b1111111111110011000000110 X
b1111111 @
b10011 A
b1000 ,
b1000 =
b1000 f
b11111111111100110000001100010011 (
b11111111111100110000001100010011 Q
b1110000 '
b1110000 _
b1110000 $
b1101100 %
b1101100 R
b1101100 `
1!
#160000
0!
#165000
bx -
bx L
bx I
b11001 J
b11111111111111111111111111110100 1
b11111111111111111111111111110100 9
1&
b11111111111111111111111111110100 *
b11111111111111111111111111110100 ^
b1110100 7
b1110100 a
b11111111111111111111111111110101 \
b1111111111111111111111111100000 Z
b11111111111111111111011111100000 ]
b11111111010111111111000000000000 Y
b11111111111111111111111111110100 [
b10000 0
b10000 >
b10000 C
b110 )
b110 E
b110 W
16
b10 #
b10 F
15
1"
b1100100 3
b1100100 ;
b1100100 G
b0 b
b10101 d
b11111 c
b1111111101011111111100000 X
b111 ?
b1101111 A
b1110000 2
b1110000 8
b11111111010111111111000001101111 (
b11111111010111111111000001101111 Q
b1100100 '
b1100100 _
bx ,
bx =
bx f
b1110100 $
b1110000 %
b1110000 R
b1110000 `
1!
#170000
0!
#175000
b10000 1
b10000 9
b10000 *
b10000 ^
0&
b11101 J
b0 +
b0 <
b0 K
b0 e
b111 ,
b111 =
b111 f
b0 \
b10000 Z
b10000 ]
b110000000000000000 Y
b110000000000000000 [
b1000 0
b1000 >
b1000 C
b101 )
b101 E
b101 W
15
16
b0 #
b0 F
0"
b1101000 '
b1101000 _
b10000 b
b0 d
b110 c
b11000010000 X
b0 @
b0 ?
b1100011 A
b1110100 3
b1110100 ;
b1110100 G
b110000100001100011 (
b110000100001100011 Q
b1110100 7
b1110100 a
b1100100 2
b1100100 8
b1101000 $
b1100100 %
b1100100 R
b1100100 `
1!
#180000
0!
#185000
b1010 *
b1010 ^
b1 1
b1 9
b0 J
b1 +
b1 <
b1 K
b1 e
b1 ,
b1 =
b1 f
b1010 \
b101 Z
b100000000100 ]
b101000101000000000000000 Y
b101000000000001010 [
1"
b0 0
b0 >
b0 C
b0 )
b0 E
b0 W
05
06
b10 7
b10 a
b101 b
b1010 d
b101 c
b10100010100000101 X
b110011 A
b10 3
b10 ;
b10 G
b101000101000001010110011 (
b101000101000001010110011 Q
b1101100 '
b1101100 _
b1 2
b1 8
b1101100 $
b1101000 %
b1101000 R
b1101000 `
1!
#190000
0!
#195000
b0 -
b0 L
b1100 I
b1 J
b110 7
b110 a
b11111111111111111111111111111111 *
b11111111111111111111111111111111 ^
b11111111111111111111111111111111 1
b11111111111111111111111111111111 9
b110 3
b110 ;
b110 G
bx +
bx <
bx K
bx e
b11111111111111111111111111111111 \
b1111111111111111111111111100110 Z
b11111111111111111111011111100110 ]
b11111111111100110000000000000000 Y
b11111111111100110000111111111110 [
15
1"
b111 2
b111 8
b110 b
b11111 d
b110 c
b1111111111110011000000110 X
b1111111 @
b10011 A
b111 ,
b111 =
b111 f
b11111111111100110000001100010011 (
b11111111111100110000001100010011 Q
b1110000 '
b1110000 _
b1110000 $
b1101100 %
b1101100 R
b1101100 `
1!
#200000
0!
#205000
bx -
bx L
bx I
b11001 J
b11111111111111111111111111110100 1
b11111111111111111111111111110100 9
1&
b11111111111111111111111111110100 *
b11111111111111111111111111110100 ^
b1110100 7
b1110100 a
b11111111111111111111111111110101 \
b1111111111111111111111111100000 Z
b11111111111111111111011111100000 ]
b11111111010111111111000000000000 Y
b11111111111111111111111111110100 [
b10000 0
b10000 >
b10000 C
b110 )
b110 E
b110 W
16
b10 #
b10 F
15
1"
b1100100 3
b1100100 ;
b1100100 G
b0 b
b10101 d
b11111 c
b1111111101011111111100000 X
b111 ?
b1101111 A
b1110000 2
b1110000 8
b11111111010111111111000001101111 (
b11111111010111111111000001101111 Q
b1100100 '
b1100100 _
bx ,
bx =
bx f
b1110100 $
b1110000 %
b1110000 R
b1110000 `
1!
#210000
0!
#215000
b10000 1
b10000 9
b10000 *
b10000 ^
0&
b11101 J
b0 +
b0 <
b0 K
b0 e
b110 ,
b110 =
b110 f
b0 \
b10000 Z
b10000 ]
b110000000000000000 Y
b110000000000000000 [
b1000 0
b1000 >
b1000 C
b101 )
b101 E
b101 W
15
16
b0 #
b0 F
0"
b1101000 '
b1101000 _
b10000 b
b0 d
b110 c
b11000010000 X
b0 @
b0 ?
b1100011 A
b1110100 3
b1110100 ;
b1110100 G
b110000100001100011 (
b110000100001100011 Q
b1110100 7
b1110100 a
b1100100 2
b1100100 8
b1101000 $
b1100100 %
b1100100 R
b1100100 `
1!
#220000
0!
#225000
b1010 *
b1010 ^
b1 1
b1 9
b0 J
b1 +
b1 <
b1 K
b1 e
b10 ,
b10 =
b10 f
b1010 \
b101 Z
b100000000100 ]
b101000101000000000000000 Y
b101000000000001010 [
1"
b0 0
b0 >
b0 C
b0 )
b0 E
b0 W
05
06
b11 7
b11 a
b101 b
b1010 d
b101 c
b10100010100000101 X
b110011 A
b11 3
b11 ;
b11 G
b101000101000001010110011 (
b101000101000001010110011 Q
b1101100 '
b1101100 _
b10 2
b10 8
b1101100 $
b1101000 %
b1101000 R
b1101000 `
1!
#230000
0!
#235000
b0 -
b0 L
b1100 I
b1 J
b101 7
b101 a
b11111111111111111111111111111111 *
b11111111111111111111111111111111 ^
b11111111111111111111111111111111 1
b11111111111111111111111111111111 9
b101 3
b101 ;
b101 G
bx +
bx <
bx K
bx e
b11111111111111111111111111111111 \
b1111111111111111111111111100110 Z
b11111111111111111111011111100110 ]
b11111111111100110000000000000000 Y
b11111111111100110000111111111110 [
15
1"
b110 2
b110 8
b110 b
b11111 d
b110 c
b1111111111110011000000110 X
b1111111 @
b10011 A
b110 ,
b110 =
b110 f
b11111111111100110000001100010011 (
b11111111111100110000001100010011 Q
b1110000 '
b1110000 _
b1110000 $
b1101100 %
b1101100 R
b1101100 `
1!
#240000
0!
#245000
bx I
b11001 J
b11111111111111111111111111110100 1
b11111111111111111111111111110100 9
1&
b11111111111111111111111111110100 *
b11111111111111111111111111110100 ^
bx -
bx L
b1110100 7
b1110100 a
b11111111111111111111111111110101 \
b1111111111111111111111111100000 Z
b11111111111111111111011111100000 ]
b11111111010111111111000000000000 Y
b11111111111111111111111111110100 [
b10000 0
b10000 >
b10000 C
b110 )
b110 E
b110 W
16
b10 #
b10 F
15
1"
b1100100 3
b1100100 ;
b1100100 G
b0 b
b10101 d
b11111 c
b1111111101011111111100000 X
b111 ?
b1101111 A
b1110000 2
b1110000 8
b11111111010111111111000001101111 (
b11111111010111111111000001101111 Q
b1100100 '
b1100100 _
bx ,
bx =
bx f
b1110100 $
b1110000 %
b1110000 R
b1110000 `
1!
#250000
0!
#255000
b10000 1
b10000 9
b10000 *
b10000 ^
0&
b11101 J
b0 +
b0 <
b0 K
b0 e
b101 ,
b101 =
b101 f
b0 \
b10000 Z
b10000 ]
b110000000000000000 Y
b110000000000000000 [
b1000 0
b1000 >
b1000 C
b101 )
b101 E
b101 W
15
16
b0 #
b0 F
0"
b1101000 '
b1101000 _
b10000 b
b0 d
b110 c
b11000010000 X
b0 @
b0 ?
b1100011 A
b1110100 3
b1110100 ;
b1110100 G
b110000100001100011 (
b110000100001100011 Q
b1110100 7
b1110100 a
b1100100 2
b1100100 8
b1101000 $
b1100100 %
b1100100 R
b1100100 `
1!
#260000
0!
#265000
b1100 -
b1100 L
b1100 I
b1010 *
b1010 ^
b1 1
b1 9
b1 J
b1 +
b1 <
b1 K
b1 e
b11 ,
b11 =
b11 f
b1010 \
b101 Z
b100000000100 ]
b101000101000000000000000 Y
b101000000000001010 [
1"
b0 0
b0 >
b0 C
b0 )
b0 E
b0 W
05
06
b100 7
b100 a
b101 b
b1010 d
b101 c
b10100010100000101 X
b110011 A
b100 3
b100 ;
b100 G
b101000101000001010110011 (
b101000101000001010110011 Q
b1101100 '
b1101100 _
b11 2
b11 8
b1101100 $
b1101000 %
b1101000 R
b1101000 `
1!
#270000
0!
#275000
b1100 I
b1 J
b1100 -
b1100 L
b100 7
b100 a
b11111111111111111111111111111111 *
b11111111111111111111111111111111 ^
b11111111111111111111111111111111 1
b11111111111111111111111111111111 9
b100 3
b100 ;
b100 G
bx +
bx <
bx K
bx e
b11111111111111111111111111111111 \
b1111111111111111111111111100110 Z
b11111111111111111111011111100110 ]
b11111111111100110000000000000000 Y
b11111111111100110000111111111110 [
15
1"
b101 2
b101 8
b110 b
b11111 d
b110 c
b1111111111110011000000110 X
b1111111 @
b10011 A
b101 ,
b101 =
b101 f
b11111111111100110000001100010011 (
b11111111111100110000001100010011 Q
b1110000 '
b1110000 _
b1110000 $
b1101100 %
b1101100 R
b1101100 `
1!
#280000
0!
#285000
b11111111111111111111111111110100 1
b11111111111111111111111111110100 9
bx I
b11001 J
1&
b11111111111111111111111111110100 *
b11111111111111111111111111110100 ^
bx -
bx L
b1110100 7
b1110100 a
b11111111111111111111111111110101 \
b1111111111111111111111111100000 Z
b11111111111111111111011111100000 ]
b11111111010111111111000000000000 Y
b11111111111111111111111111110100 [
b10000 0
b10000 >
b10000 C
b110 )
b110 E
b110 W
16
b10 #
b10 F
15
1"
b1100100 3
b1100100 ;
b1100100 G
b0 b
b10101 d
b11111 c
b1111111101011111111100000 X
b111 ?
b1101111 A
b1110000 2
b1110000 8
b11111111010111111111000001101111 (
b11111111010111111111000001101111 Q
b1100100 '
b1100100 _
bx ,
bx =
bx f
b1110100 $
b1110000 %
b1110000 R
b1110000 `
1!
#290000
0!
#295000
b10000 1
b10000 9
b10000 *
b10000 ^
0&
b11101 J
b0 +
b0 <
b0 K
b0 e
b100 ,
b100 =
b100 f
b0 \
b10000 Z
b10000 ]
b110000000000000000 Y
b110000000000000000 [
b1000 0
b1000 >
b1000 C
b101 )
b101 E
b101 W
15
16
b0 #
b0 F
0"
b1101000 '
b1101000 _
b10000 b
b0 d
b110 c
b11000010000 X
b0 @
b0 ?
b1100011 A
b1110100 3
b1110100 ;
b1110100 G
b110000100001100011 (
b110000100001100011 Q
b1110100 7
b1110100 a
b1100100 2
b1100100 8
b1101000 $
b1100100 %
b1100100 R
b1100100 `
1!
#300000
0!
#305000
b0 -
b0 L
b1100 I
b1010 *
b1010 ^
b1 1
b1 9
b1 J
b1 +
b1 <
b1 K
b1 e
b1010 \
b101 Z
b100000000100 ]
b101000101000000000000000 Y
b101000000000001010 [
1"
b0 0
b0 >
b0 C
b0 )
b0 E
b0 W
05
06
b101 7
b101 a
b101 b
b1010 d
b101 c
b10100010100000101 X
b110011 A
b101 3
b101 ;
b101 G
b101000101000001010110011 (
b101000101000001010110011 Q
b1101100 '
b1101100 _
b100 2
b100 8
b1101100 $
b1101000 %
b1101000 R
b1101000 `
1!
#310000
0!
#315000
bx -
bx L
bx I
b0 J
b11 7
b11 a
b11111111111111111111111111111111 *
b11111111111111111111111111111111 ^
b11111111111111111111111111111111 1
b11111111111111111111111111111111 9
b11 3
b11 ;
b11 G
bx +
bx <
bx K
bx e
b11111111111111111111111111111111 \
b1111111111111111111111111100110 Z
b11111111111111111111011111100110 ]
b11111111111100110000000000000000 Y
b11111111111100110000111111111110 [
15
1"
b100 2
b100 8
b110 b
b11111 d
b110 c
b1111111111110011000000110 X
b1111111 @
b10011 A
b100 ,
b100 =
b100 f
b11111111111100110000001100010011 (
b11111111111100110000001100010011 Q
b1110000 '
b1110000 _
b1110000 $
b1101100 %
b1101100 R
b1101100 `
1!
#320000
0!
#325000
b11001 J
b11111111111111111111111111110100 1
b11111111111111111111111111110100 9
1&
b11111111111111111111111111110100 *
b11111111111111111111111111110100 ^
b1110100 7
b1110100 a
b11111111111111111111111111110101 \
b1111111111111111111111111100000 Z
b11111111111111111111011111100000 ]
b11111111010111111111000000000000 Y
b11111111111111111111111111110100 [
b10000 0
b10000 >
b10000 C
b110 )
b110 E
b110 W
16
b10 #
b10 F
15
1"
b1100100 3
b1100100 ;
b1100100 G
b0 b
b10101 d
b11111 c
b1111111101011111111100000 X
b111 ?
b1101111 A
b1110000 2
b1110000 8
b11111111010111111111000001101111 (
b11111111010111111111000001101111 Q
b1100100 '
b1100100 _
bx ,
bx =
bx f
b1110100 $
b1110000 %
b1110000 R
b1110000 `
1!
#330000
0!
#335000
b10000 1
b10000 9
b10000 *
b10000 ^
0&
b11101 J
b0 +
b0 <
b0 K
b0 e
b11 ,
b11 =
b11 f
b0 \
b10000 Z
b10000 ]
b110000000000000000 Y
b110000000000000000 [
b1000 0
b1000 >
b1000 C
b101 )
b101 E
b101 W
15
16
b0 #
b0 F
0"
b1101000 '
b1101000 _
b10000 b
b0 d
b110 c
b11000010000 X
b0 @
b0 ?
b1100011 A
b1110100 3
b1110100 ;
b1110100 G
b110000100001100011 (
b110000100001100011 Q
b1110100 7
b1110100 a
b1100100 2
b1100100 8
b1101000 $
b1100100 %
b1100100 R
b1100100 `
1!
#340000
0!
#345000
b0 -
b0 L
b1100 I
b1010 *
b1010 ^
b1 1
b1 9
b1 J
b1 +
b1 <
b1 K
b1 e
b101 ,
b101 =
b101 f
b1010 \
b101 Z
b100000000100 ]
b101000101000000000000000 Y
b101000000000001010 [
1"
b0 0
b0 >
b0 C
b0 )
b0 E
b0 W
05
06
b110 7
b110 a
b101 b
b1010 d
b101 c
b10100010100000101 X
b110011 A
b110 3
b110 ;
b110 G
b101000101000001010110011 (
b101000101000001010110011 Q
b1101100 '
b1101100 _
b101 2
b101 8
b1101100 $
b1101000 %
b1101000 R
b1101000 `
1!
#350000
0!
#355000
bx -
bx L
bx I
b0 J
b10 7
b10 a
b11111111111111111111111111111111 *
b11111111111111111111111111111111 ^
b11111111111111111111111111111111 1
b11111111111111111111111111111111 9
b10 3
b10 ;
b10 G
bx +
bx <
bx K
bx e
b11111111111111111111111111111111 \
b1111111111111111111111111100110 Z
b11111111111111111111011111100110 ]
b11111111111100110000000000000000 Y
b11111111111100110000111111111110 [
15
1"
b11 2
b11 8
b110 b
b11111 d
b110 c
b1111111111110011000000110 X
b1111111 @
b10011 A
b11 ,
b11 =
b11 f
b11111111111100110000001100010011 (
b11111111111100110000001100010011 Q
b1110000 '
b1110000 _
b1110000 $
b1101100 %
b1101100 R
b1101100 `
1!
#360000
0!
#365000
b11001 J
b11111111111111111111111111110100 1
b11111111111111111111111111110100 9
1&
b11111111111111111111111111110100 *
b11111111111111111111111111110100 ^
b1110100 7
b1110100 a
b11111111111111111111111111110101 \
b1111111111111111111111111100000 Z
b11111111111111111111011111100000 ]
b11111111010111111111000000000000 Y
b11111111111111111111111111110100 [
b10000 0
b10000 >
b10000 C
b110 )
b110 E
b110 W
16
b10 #
b10 F
15
1"
b1100100 3
b1100100 ;
b1100100 G
b0 b
b10101 d
b11111 c
b1111111101011111111100000 X
b111 ?
b1101111 A
b1110000 2
b1110000 8
b11111111010111111111000001101111 (
b11111111010111111111000001101111 Q
b1100100 '
b1100100 _
bx ,
bx =
bx f
b1110100 $
b1110000 %
b1110000 R
b1110000 `
1!
#370000
0!
#375000
b10000 1
b10000 9
b10000 *
b10000 ^
0&
b11101 J
b0 +
b0 <
b0 K
b0 e
b10 ,
b10 =
b10 f
b0 \
b10000 Z
b10000 ]
b110000000000000000 Y
b110000000000000000 [
b1000 0
b1000 >
b1000 C
b101 )
b101 E
b101 W
15
16
b0 #
b0 F
0"
b1101000 '
b1101000 _
b10000 b
b0 d
b110 c
b11000010000 X
b0 @
b0 ?
b1100011 A
b1110100 3
b1110100 ;
b1110100 G
b110000100001100011 (
b110000100001100011 Q
b1110100 7
b1110100 a
b1100100 2
b1100100 8
b1101000 $
b1100100 %
b1100100 R
b1100100 `
1!
#380000
0!
#385000
b0 -
b0 L
b1100 I
b1010 *
b1010 ^
b1 1
b1 9
b1 J
b1 +
b1 <
b1 K
b1 e
b110 ,
b110 =
b110 f
b1010 \
b101 Z
b100000000100 ]
b101000101000000000000000 Y
b101000000000001010 [
1"
b0 0
b0 >
b0 C
b0 )
b0 E
b0 W
05
06
b111 7
b111 a
b101 b
b1010 d
b101 c
b10100010100000101 X
b110011 A
b111 3
b111 ;
b111 G
b101000101000001010110011 (
b101000101000001010110011 Q
b1101100 '
b1101100 _
b110 2
b110 8
b1101100 $
b1101000 %
b1101000 R
b1101000 `
1!
#390000
0!
